{
  "files": {
    "main.css": "/my%20first%20pro/static/css/main.073c9b0a.css",
    "main.js": "/my%20first%20pro/static/js/main.73eed0f4.js",
    "static/js/787.bd5f40f7.chunk.js": "/my%20first%20pro/static/js/787.bd5f40f7.chunk.js",
    "index.html": "/my%20first%20pro/index.html",
    "main.073c9b0a.css.map": "/my%20first%20pro/static/css/main.073c9b0a.css.map",
    "main.73eed0f4.js.map": "/my%20first%20pro/static/js/main.73eed0f4.js.map",
    "787.bd5f40f7.chunk.js.map": "/my%20first%20pro/static/js/787.bd5f40f7.chunk.js.map"
  },
  "entrypoints": [
    "static/css/main.073c9b0a.css",
    "static/js/main.73eed0f4.js"
  ]
}